Proyección de ventas
…
class(set)

## [1] "data.frame"

names(set)=c("fecha","Total")
#agrupo por fecha
datos<-set %>%
    group_by(fecha)%>%
    summarise(n=n())
datos

## # A tibble: 123 x 2
##    fecha          n
##    <date>     <int>
##  1 2018-05-01   709
##  2 2018-05-02   582
##  3 2018-05-03   587
##  4 2018-05-04   605
##  5 2018-05-05   752
##  6 2018-05-06   936
##  7 2018-05-07   691
##  8 2018-05-08   571
##  9 2018-05-09   571
## 10 2018-05-10   595
## # ... with 113 more rows
…
#Random Forest 
recipe_spec<-recipe(Cantxdia~fecha, training(splits)) %>%
  step_timeseries_signature(fecha) %>%
  step_fourier(fecha, period=365, K=10) %>%
  step_dummy(all_nominal())

recipe_spec %>% prep() %>% juice()

## # A tibble: 86 x 64
##    fecha      Cantxdia fecha_index.num fecha_year fecha_year.iso fecha_half fecha_quarter fecha_month
##    <date>        <dbl>           <dbl>      <int>          <int>      <int>         <int>       <int>
##  1 2018-05-01   0.220       1525132800       2018           2018          1             2           5
##  2 2018-05-02   0.0781      1525219200       2018           2018          1             2           5
##  3 2018-05-03   0.0837      1525305600       2018           2018          1             2           5
##  4 2018-05-04   0.104       1525392000       2018           2018          1             2           5
##  5 2018-05-05   0.268       1525478400       2018           2018          1             2           5
##  6 2018-05-06   0.473       1525564800       2018           2018          1             2           5
##  7 2018-05-07   0.200       1525651200       2018           2018          1             2           5
##  8 2018-05-08   0.0658      1525737600       2018           2018          1             2           5
##  9 2018-05-09   0.0658      1525824000       2018           2018          1             2           5
## 10 2018-05-10   0.0926      1525910400       2018           2018          1             2           5
## # ... with 76 more rows, and 56 more variables: fecha_month.xts <int>, fecha_day <int>, fecha_hour <int>,
## #   fecha_minute <int>, fecha_second <int>, fecha_hour12 <int>, fecha_am.pm <int>, fecha_wday <int>,
## #   fecha_wday.xts <int>, fecha_mday <int>, fecha_qday <int>, fecha_yday <int>, fecha_mweek <int>,
## #   fecha_week <int>, fecha_week.iso <int>, fecha_week2 <int>, fecha_week3 <int>, fecha_week4 <int>,
## #   fecha_mday7 <int>, fecha_sin365_K1 <dbl>, fecha_cos365_K1 <dbl>, fecha_sin365_K2 <dbl>,
## #   fecha_cos365_K2 <dbl>, fecha_sin365_K3 <dbl>, fecha_cos365_K3 <dbl>, fecha_sin365_K4 <dbl>,
## #   fecha_cos365_K4 <dbl>, fecha_sin365_K5 <dbl>, fecha_cos365_K5 <dbl>, fecha_sin365_K6 <dbl>, ...
…
